{
  "Example.dll": {
    "/Users/teleginski/Projects/example/src/Example/Program.cs": {
      "Example.Program": {
        "System.Void Example.Program::Main(System.String[])": {
          "Lines": {
            "16": 0,
            "17": 0,
            "18": 0
          },
          "Branches": []
        },
        "Microsoft.AspNetCore.Hosting.IWebHostBuilder Example.Program::CreateWebHostBuilder(System.String[])": {
          "Lines": {
            "21": 0,
            "22": 0
          },
          "Branches": []
        }
      }
    },
    "/Users/teleginski/Projects/example/src/Example/Startup.cs": {
      "Example.Startup": {
        "Microsoft.Extensions.Configuration.IConfiguration Example.Startup::get_Configuration()": {
          "Lines": {
            "24": 0
          },
          "Branches": []
        },
        "System.Void Example.Startup::ConfigureServices(Microsoft.Extensions.DependencyInjection.IServiceCollection)": {
          "Lines": {
            "28": 0,
            "29": 0,
            "31": 0,
            "32": 0
          },
          "Branches": []
        },
        "System.Void Example.Startup::Configure(Microsoft.AspNetCore.Builder.IApplicationBuilder,Microsoft.AspNetCore.Hosting.IHostingEnvironment)": {
          "Lines": {
            "36": 0,
            "37": 0,
            "38": 0,
            "39": 0,
            "40": 0,
            "42": 0,
            "44": 0,
            "45": 0,
            "47": 0,
            "48": 0,
            "49": 0
          },
          "Branches": [
            {
              "Line": 37,
              "Offset": 9,
              "EndOffset": 11,
              "Path": 0,
              "Ordinal": 0,
              "Hits": 0
            },
            {
              "Line": 37,
              "Offset": 9,
              "EndOffset": 22,
              "Path": 1,
              "Ordinal": 1,
              "Hits": 0
            }
          ]
        },
        "System.Void Example.Startup::.ctor(Microsoft.Extensions.Configuration.IConfiguration)": {
          "Lines": {
            "19": 0,
            "20": 0,
            "21": 0,
            "22": 0
          },
          "Branches": []
        }
      }
    },
    "/Users/teleginski/Projects/example/src/Example/Handlers/CustomerHandler.cs": {
      "Example.Handlers.CustomerHandler/<Handle>d__0": {
        "System.Void Example.Handlers.CustomerHandler/<Handle>d__0::MoveNext()": {
          "Lines": {
            "12": 2,
            "13": 2,
            "14": 1,
            "16": 1,
            "17": 2
          },
          "Branches": [
            {
              "Line": 12,
              "Offset": 14,
              "EndOffset": 21,
              "Path": 0,
              "Ordinal": 0,
              "Hits": 2
            },
            {
              "Line": 13,
              "Offset": 38,
              "EndOffset": 40,
              "Path": 0,
              "Ordinal": 2,
              "Hits": 1
            },
            {
              "Line": 14,
              "Offset": 63,
              "EndOffset": 133,
              "Path": 1,
              "Ordinal": 5,
              "Hits": 1
            },
            {
              "Line": 13,
              "Offset": 38,
              "EndOffset": 158,
              "Path": 1,
              "Ordinal": 3,
              "Hits": 1
            },
            {
              "Line": 16,
              "Offset": 182,
              "EndOffset": 251,
              "Path": 1,
              "Ordinal": 7,
              "Hits": 1
            }
          ]
        }
      }
    },
    "/Users/teleginski/Projects/example/src/Example/Controllers/ValuesController.cs": {
      "Example.Controllers.ValuesController": {
        "System.Collections.Generic.IEnumerable`1<System.String> Example.Controllers.ValuesController::Get()": {
          "Lines": {
            "25": 1,
            "26": 1,
            "27": 1
          },
          "Branches": []
        },
        "System.Void Example.Controllers.ValuesController::Post(System.String)": {
          "Lines": {
            "40": 0,
            "41": 0
          },
          "Branches": []
        },
        "System.Void Example.Controllers.ValuesController::Put(System.Int32,System.String)": {
          "Lines": {
            "46": 0,
            "47": 0
          },
          "Branches": []
        },
        "System.Void Example.Controllers.ValuesController::Delete(System.Int32)": {
          "Lines": {
            "52": 0,
            "53": 0
          },
          "Branches": []
        },
        "System.Void Example.Controllers.ValuesController::.ctor(MediatR.IMediator)": {
          "Lines": {
            "17": 3,
            "18": 3,
            "19": 3,
            "20": 3
          },
          "Branches": []
        }
      },
      "Example.Controllers.ValuesController/<Get>d__3": {
        "System.Void Example.Controllers.ValuesController/<Get>d__3::MoveNext()": {
          "Lines": {
            "32": 2,
            "33": 2,
            "34": 2,
            "35": 2
          },
          "Branches": [
            {
              "Line": 33,
              "Offset": 62,
              "EndOffset": 129,
              "Path": 1,
              "Ordinal": 1,
              "Hits": 2
            }
          ]
        }
      }
    },
    "/Users/teleginski/Projects/example/src/Example/Commands/CustomerCommand.cs": {
      "Example.Commands.CustomerCommand": {
        "System.Void Example.Commands.CustomerCommand::.ctor(System.Int32)": {
          "Lines": {
            "10": 4,
            "11": 4,
            "12": 4,
            "13": 4
          },
          "Branches": []
        }
      }
    }
  }
}